{
  "$schema": "https://cloudbase.it/coriolis-cd/schemas/env_info_schema#",
  "type": "object",
  "properties": {
    "template_name": {
      "type": "string",
      "description": "Name of the VM template the instance is spawned off of."
    },
    "pool_name": {
      "type": "string",
      "description": "Pool used."
    }
  }
}
