{
  "$schema": "https://cloudbase.it/coriolis-cd/schemas/vm_config_schema#",
  "type": "object",
  "properties": {
    "username": {
      "type": "string",
      "description": "Username for VM"
    },
    "password": {
      "type": "string",
      "description": "Password for VM"
    },
    "vm_name": {
      "type": "string",
      "description": "Name for VM"
    },
    "template_name": {
      "type": "string",
      "description": "Name of the VM template the instance is spawned off of."
    },
    "datacenter_name": {
      "type": "string",
      "description":
      "Datastore used to deploy VM. Defaults to the datastore with the largest free space available in the selected 'datacenter_name'."
    },
    "agent_url": {
      "type": "string",
      "description": "Coriolis Snapshot Agent file (.tar.gz) URL taken from Github repository releases page."
    }
  }
}